<?xml version="1.0" encoding="utf-8"?>
<!-- Generator: Adobe Illustrator 20.1.0, SVG Export Plug-In . SVG Version: 6.00 Build 0)  -->
<svg version="1.1" id="Livello_1" xmlns="http://www.w3.org/2000/svg" xmlns:xlink="http://www.w3.org/1999/xlink" x="0px" y="0px"
	 viewBox="0 0 16 16" style="enable-background:new 0 0 16 16;" xml:space="preserve">
<style type="text/css">
	.st0{fill:none;stroke:#7B868C;stroke-width:0.7;}
	.st1{fill:none;stroke:#FF671D;stroke-width:15;}
</style>
<g>
	<g>
		<path class="st0" d="M0.5,12h7V5h-7V12z M1.7,8.5v0.7 M3.2,8.5v0.7 M4.6,8.5v0.7 M6,8.5v0.7 M1.7,10v0.7 M3.2,10v0.7 M4.6,10v0.7
			 M2.4,4v1.6 M5.7,4v1.6"/>
	</g>
	<path class="st1" d="M-466-1903.5h4962v2964H-466V-1903.5z"/>
</g>
</svg>
