<svg xmlns="http://www.w3.org/2000/svg" width="24" height="24" viewBox="0 0 24 24">
    <g fill="none" fill-rule="evenodd">
        <g fill="#7B868C" fill-rule="nonzero">
            <path d="M17.775 19.422a1.686 1.686 0 1 0-3.372 0 1.686 1.686 0 0 0 3.372 0zm1 0a2.686 2.686 0 1 1-5.372-.001 2.686 2.686 0 0 1 5.372 0zM11.734 15.99a5.117 5.117 0 1 0-10.233 0 5.117 5.117 0 0 0 10.233 0zm1 0a6.117 6.117 0 1 1-12.234 0 6.117 6.117 0 1 1 12.234 0z"/>
            <path d="M15.59 8.076H6.617v-1h9.973v10.16h-1zM22.505 13.992l.707.707-2.046 2.044-3.738-3.736.707-.707 3.031 3.03z"/>
            <path d="M4.616 3H1.701V2h3.533l1.883 3.767v3.075h-1v-2.84z"/>
            <path d="M6.617 6.385v-1h9.973v2.191h-1v-1.19z"/>
        </g>
        <path stroke="#FF671D" stroke-width="15" d="M-301.5-1929.5h4962v2964h-4962z"/>
    </g>
</svg>
