<svg xmlns="http://www.w3.org/2000/svg" width="16" height="16" viewBox="0 0 16 16">
    <g fill="none" fill-rule="evenodd">
        <path fill="#19D3C5" d="M7.867 10.872a6.527 6.527 0 0 0 4.41-1.891 6.512 6.512 0 0 0 1.866-5.216 6.485 6.485 0 0 0-5.216 1.867 6.507 6.507 0 0 0-1.894 4.45l4.53-4.53.813.812-4.509 4.508zm-.845 1.125l.009 2.533-1.15.004-.015-4.094A5.223 5.223 0 0 1 2.02 8.925 5.216 5.216 0 0 1 .567 4.41l.066-.409.41-.065a5.213 5.213 0 0 1 4.512 1.451c.453.453.811.98 1.066 1.553.37-.78.87-1.5 1.493-2.122a7.665 7.665 0 0 1 6.633-2.134l.41.066.066.41a7.668 7.668 0 0 1-2.134 6.632 7.666 7.666 0 0 1-6.067 2.204zm-4.19-3.885c.813.813 1.942 1.22 3.086 1.176A4.06 4.06 0 0 0 4.743 6.2c-.814-.813-1.94-1.22-3.087-1.177A4.065 4.065 0 0 0 2.83 8.112z"/>
        <path stroke="#FF671D" stroke-width="15" d="M-301.5-1875.5h4962v2964h-4962z"/>
    </g>
</svg>
