<svg xmlns="http://www.w3.org/2000/svg" width="104" height="51" viewBox="0 0 104 51">
    <g fill="none" fill-rule="evenodd">
        <g fill="#FF671D" fill-rule="nonzero">
            <path d="M59.635 9.936a6.935 6.935 0 0 1-6.936 6.935 6.936 6.936 0 1 1 6.936-6.935zm-1.6 0a5.336 5.336 0 1 0-10.671 0 5.336 5.336 0 0 0 10.671 0zM37.594 47.929l1.442-16.045c.372-5.754 5.248-10.227 11.147-10.227h5.034c5.898 0 10.775 4.473 11.144 10.207l1.445 16.065 1.594-.144-1.443-16.044c-.423-6.563-6.005-11.684-12.74-11.684h-5.034c-6.735 0-12.317 5.12-12.743 11.704L36 47.785l1.594.144z"/>
        </g>
        <path stroke="#FF671D" stroke-width="15" d="M-302.5-2290.5h4962v2964h-4962z"/>
    </g>
</svg>
