<svg xmlns="http://www.w3.org/2000/svg" width="28" height="28" viewBox="0 0 28 28">
    <g fill="none" fill-rule="evenodd">
        <path fill="#FF671D" fill-rule="nonzero" d="M1.915 7.071v16.03h24.17V6.3L13.499 16 1.915 7.071zM3.593 5.9l9.906 7.635L23.407 5.9H3.593zM0 25V4h28v21H0z"/>
        <path stroke="#FF671D" stroke-width="15" d="M-303.5-2106.5h4962v2964h-4962z"/>
    </g>
</svg>
