<svg xmlns="http://www.w3.org/2000/svg" width="104" height="51" viewBox="0 0 104 51">
    <g fill="none" fill-rule="evenodd">
        <path fill="#FF6700" d="M83.599 24.16H23.598v-1.6h5.444v-7.34h1.6v7.34h5.999v-7.34h1.6v7.34h6.001v-7.34h1.6v7.34h5.999v-7.34h1.6v7.34h6.001v-7.34h1.6v7.34h6v-7.34h1.6v7.34h6v-7.34h1.6v7.34h7.138L79.97 8.599H20.599v27.943l8.333 1.595-.3 1.573L19 37.865V7h62.228L85.2 23.36v16.364h-9.757v-1.6h8.156V24.16zM44.687 39.724v-1.6h14.602v1.6H44.687zm-7.997-4.909a4.112 4.112 0 0 0-4.108 4.108 4.112 4.112 0 0 0 4.108 4.108 4.112 4.112 0 0 0 4.108-4.108 4.112 4.112 0 0 0-4.108-4.108zm0 9.815a5.713 5.713 0 0 1-5.708-5.707 5.715 5.715 0 0 1 5.708-5.708 5.715 5.715 0 0 1 5.708 5.708 5.713 5.713 0 0 1-5.709 5.707zm30.753-9.815a4.112 4.112 0 0 0-4.107 4.108 4.112 4.112 0 0 0 4.107 4.108 4.112 4.112 0 0 0 4.108-4.108 4.112 4.112 0 0 0-4.108-4.108zm0 9.815a5.713 5.713 0 0 1-5.707-5.707 5.714 5.714 0 0 1 5.707-5.708 5.715 5.715 0 0 1 5.708 5.708 5.713 5.713 0 0 1-5.708 5.707z"/>
        <path stroke="#FF671D" stroke-width="15" d="M-424.5-2290.5h4962v2964h-4962z"/>
    </g>
</svg>
