<svg xmlns="http://www.w3.org/2000/svg" width="16" height="16" viewBox="0 0 16 16">
    <g fill="#7B868C" fill-rule="nonzero">
        <path d="M14.634 8.052a6.582 6.582 0 0 0-6.582-6.583 6.582 6.582 0 0 0-6.583 6.583 6.582 6.582 0 0 0 6.583 6.582 6.582 6.582 0 0 0 6.582-6.582zm1 0a7.582 7.582 0 0 1-7.582 7.582A7.582 7.582 0 0 1 .469 8.052 7.582 7.582 0 0 1 8.052.469a7.582 7.582 0 0 1 7.582 7.583z"/>
        <path d="M10.754 10.047l-.707.708-2.496-2.496V3.988h1v3.857z"/>
    </g>
</svg>
