<svg xmlns="http://www.w3.org/2000/svg" width="16" height="16" viewBox="0 0 16 16">
    <g fill="none" fill-rule="evenodd">
        <g fill="#FF671D" fill-rule="nonzero">
            <path d="M13.513 11.42h1v2.917H3.361v-1h10.152zM13.514 5.242H3.362v-1h11.152v2.533h-1z"/>
            <path d="M3.362 2.5a.867.867 0 0 0-.862.871c0 .482.387.871.862.871v1A1.867 1.867 0 0 1 1.5 3.371c0-1.032.833-1.871 1.862-1.871h9.366v3.076h-1V2.5H3.362z"/>
            <path d="M3.362 13.337v1a1.866 1.866 0 0 1-1.862-1.87V3.37h1v9.096c0 .481.386.87.862.87zM14.224 9.864a.768.768 0 0 0 0-1.537h-1.576a.767.767 0 0 0-.76.768c0 .424.344.77.76.77h1.576zm0 1h-1.576c-.97 0-1.76-.795-1.76-1.769 0-.973.79-1.768 1.76-1.768h1.576a1.768 1.768 0 0 1 0 3.537z"/>
        </g>
        <path stroke="#FF671D" stroke-width="15" d="M-481.5-1826.5h4962v2964h-4962z"/>
    </g>
</svg>
