<svg xmlns="http://www.w3.org/2000/svg" width="104" height="51" viewBox="0 0 104 51">
    <g fill="none" fill-rule="evenodd">
        <g fill="#FF671D">
            <path d="M39.597 16.224a3.189 3.189 0 0 0-3.185 3.185 3.189 3.189 0 0 0 3.185 3.184 3.189 3.189 0 0 0 3.185-3.184 3.189 3.189 0 0 0-3.185-3.185m0 7.969a4.79 4.79 0 0 1-4.784-4.784 4.79 4.79 0 0 1 4.784-4.785 4.79 4.79 0 0 1 4.784 4.785 4.79 4.79 0 0 1-4.784 4.784M49.13 41.336l-.937-7.875c-.236-3.707-3.292-6.576-6.961-6.576h-3.27c-3.67 0-6.726 2.869-6.956 6.53l-.941 7.92-1.588-.188.936-7.875c.28-4.46 4.037-7.987 8.55-7.987h3.269c4.512 0 8.269 3.528 8.553 8.03l.933 7.832-1.588.189zM64.24 16.224a3.189 3.189 0 0 0-3.185 3.185 3.189 3.189 0 0 0 3.185 3.184 3.189 3.189 0 0 0 3.185-3.184 3.189 3.189 0 0 0-3.185-3.185m0 7.969a4.79 4.79 0 0 1-4.784-4.784 4.79 4.79 0 0 1 4.784-4.785 4.79 4.79 0 0 1 4.784 4.785 4.79 4.79 0 0 1-4.784 4.784M73.773 41.336l-.937-7.875c-.236-3.707-3.292-6.576-6.96-6.576h-3.27c-3.67 0-6.727 2.869-6.957 6.53l-.94 7.92-1.589-.188.936-7.875c.28-4.46 4.036-7.987 8.55-7.987h3.27c4.511 0 8.268 3.528 8.552 8.03l.933 7.832-1.588.189zM51.629 11.98a3.189 3.189 0 0 0-3.185 3.185 3.189 3.189 0 0 0 3.185 3.184 3.188 3.188 0 0 0 3.184-3.184 3.189 3.189 0 0 0-3.184-3.185m0 7.97a4.79 4.79 0 0 1-4.784-4.785 4.79 4.79 0 0 1 4.784-4.785 4.79 4.79 0 0 1 4.783 4.785 4.79 4.79 0 0 1-4.783 4.784M45.042 24.707l-1.137-1.127a8.514 8.514 0 0 1 6.089-2.538h3.269c2.189 0 4.272.825 5.867 2.323l-1.096 1.166a6.94 6.94 0 0 0-4.771-1.889h-3.269a6.92 6.92 0 0 0-4.952 2.065M23.212 18.518a7.569 7.569 0 0 1 2.108 2.108 7.586 7.586 0 0 1 2.109-2.108 7.586 7.586 0 0 1-2.11-2.107 7.569 7.569 0 0 1-2.107 2.107zm2.108 5.32l-.702-1.283c-.926-1.691-1.642-2.408-3.335-3.334L20 18.519l1.283-.702c1.693-.926 2.409-1.643 3.335-3.335l.702-1.283.703 1.283c.925 1.692 1.642 2.409 3.335 3.335l1.283.702-1.283.702c-1.693.926-2.41 1.643-3.335 3.335l-.703 1.283zM31.021 13.364l-.702-1.283c-.205-.374-.322-.49-.696-.696l-1.286-.704 1.287-.7c.374-.205.492-.322.695-.696l.702-1.283.702 1.283c.205.375.321.492.694.695l1.287.701-1.286.704c-.373.204-.49.321-.695.696l-.702 1.283zM75.828 18.518a7.569 7.569 0 0 1 2.108 2.108 7.586 7.586 0 0 1 2.11-2.108 7.586 7.586 0 0 1-2.11-2.107 7.569 7.569 0 0 1-2.108 2.107zm2.108 5.32l-.702-1.283c-.926-1.691-1.642-2.408-3.335-3.334l-1.283-.702 1.283-.702c1.693-.926 2.41-1.643 3.335-3.335l.702-1.283.703 1.283c.925 1.692 1.642 2.409 3.335 3.335l1.283.702-1.283.702c-1.693.926-2.41 1.643-3.335 3.335l-.703 1.283zM72.234 13.366l-.7-1.286c-.205-.374-.322-.49-.696-.695l-1.286-.704 1.286-.7c.375-.205.491-.32.695-.695L72.234 8l.703 1.285c.204.374.321.491.695.695l1.287.701-1.286.704c-.374.205-.49.322-.696.696l-.703 1.285z"/>
        </g>
        <path stroke="#FF671D" stroke-width="15" d="M-302.5-2224.5h4962v2964h-4962z"/>
    </g>
</svg>
