<?xml version="1.0" encoding="UTF-8"?>
<svg width="1440px" height="340px" viewBox="0 0 1440 340" version="1.1" xmlns="http://www.w3.org/2000/svg" xmlns:xlink="http://www.w3.org/1999/xlink">
    <!-- Generator: Sketch 54.1 (76490) - https://sketchapp.com -->
    <title>Desktop / Contattaci header@1.5x</title>
    <desc>Created with Sketch.</desc>
    <g id="Responsive" stroke="none" stroke-width="1" fill="none" fill-rule="evenodd">
        <g id="Desktop-/-Other-pages" transform="translate(0.000000, -75.000000)" fill-rule="nonzero">
            <g id="Desktop-/-Contattaci-header" transform="translate(0.000000, 75.000000)">
                <rect id="Rectangle" fill="#FB91A3" x="0" y="0" width="1440" height="225.04"></rect>
                <rect id="Rectangle" fill="#19D3C5" x="0" y="225.04" width="1440" height="114.96"></rect>
                <path d="M659.75,0 C659.75,0 82.47,6.86 0,131.72 L0,0 L659.75,0 Z" id="Path" fill="#FF671D"></path>
                <polygon id="Path" fill="#29235A" points="0 225.04 0 315.64 1440 262.88 1440 225.04"></polygon>
            </g>
        </g>
    </g>
</svg>