<?xml version="1.0" encoding="UTF-8"?>
<svg width="320px" height="120px" viewBox="0 0 320 120" version="1.1" xmlns="http://www.w3.org/2000/svg" xmlns:xlink="http://www.w3.org/1999/xlink">
    <!-- Generator: Sketch 54.1 (76490) - https://sketchapp.com -->
    <title>mobile / FAQ header@1.5x</title>
    <desc>Created with Sketch.</desc>
    <g id="Mobile" stroke="none" stroke-width="1" fill="none" fill-rule="evenodd">
        <g id="Mobile-/-07-FAQ" transform="translate(0.000000, -50.000000)" fill-rule="nonzero">
            <g id="mobile-/-FAQ-header" transform="translate(-1.000000, 50.000000)">
                <rect id="Rectangle" fill="#F93549" x="0.887227414" y="0" width="320" height="69.1937695"></rect>
                <rect id="Rectangle" fill="#D9D394" x="0.887227414" y="69.1937695" width="320" height="50.4323988"></rect>
                <path d="M320.887227,106.038629 L285.199495,91.0853583 C263.207055,81.8841121 187.872951,76.3115265 164.091126,74.576947 L0.887227414,69.1937695 L0.887227414,49.8442368 L320.887227,19.9376947 L320.887227,106.038629 Z" id="Path" fill="#FB91A3"></path>
                <path d="M231.368,111.581308 L0.887227414,113.395639 L0.887227414,119.626168 L320.887227,119.626168 L320.887227,70.6492212 C320.887227,93.258567 280.811004,111.581308 231.368,111.581308 Z" id="Path" fill="#FF671D"></path>
            </g>
        </g>
    </g>
</svg>