<?xml version="1.0" encoding="UTF-8"?>
<svg width="320px" height="129px" viewBox="0 0 320 129" version="1.1" xmlns="http://www.w3.org/2000/svg" xmlns:xlink="http://www.w3.org/1999/xlink">
    <!-- Generator: Sketch 54.1 (76490) - https://sketchapp.com -->
    <title>Mobile / I nostri mezzi@1.5x</title>
    <desc>Created with Sketch.</desc>
    <g id="Mobile" stroke="none" stroke-width="1" fill="none" fill-rule="evenodd">
        <g id="Mobile-/-09-I-nostri-mezzi" transform="translate(0.000000, -50.000000)" fill-rule="nonzero">
            <g id="Mobile-/-I-nostri-mezzi" transform="translate(-3.000000, 50.000000)">
                <rect id="Rectangle" fill="#E6D67F" x="0.91" y="0.79" width="325.44" height="89.48"></rect>
                <rect id="Rectangle" fill="#FB91A3" x="1.17" y="82.88" width="325.17" height="46.06"></rect>
                <rect id="Rectangle" fill="#19D3C5" x="0.84" y="42.33" width="323.16" height="44.18"></rect>
                <path d="M32.46,101.870041 L3,101.870041 L3,27 L24,27.0000409 C32.133299,26.9823778 39.1577164,32.6863218 40.81,40.6500409 L49.23,81.2500409 C50.2803077,86.2971495 49.0017446,91.5488927 45.748993,95.5483999 C42.4962415,99.5479072 37.6152353,101.869826 32.46,101.870041 L32.46,101.870041 Z" id="Path" fill="#29235A"></path>
                <path d="M3,114.52 C11.8255103,114.52 20.87,107.68551 20.87,98.86 C20.87,92.9763265 14.9133333,87.6496598 3,82.88 C3,87.6496598 3,92.9763265 3,98.86 C3,104.743674 3,109.963674 3,114.52 Z" id="Oval" fill="#F93549"></path>
                <path d="M297.019351,101.620006 L322.879351,101.620018 L322.879351,36 L304.399351,36.0000058 C297.266566,35.9937953 291.115906,41.0113286 289.689351,48.0000058 L282.309351,83.5900058 C281.397714,88.0100073 282.524608,92.6055593 285.377572,96.1024282 C288.230536,99.5992971 292.506319,101.625788 297.019351,101.620006 Z" id="Path" fill="#FF671D"></path>
                <path d="M322.7,114.52 L322.7,100.51 L322.7,86.5 C314.962491,86.5 308.69,92.7724907 308.69,100.51 C308.69,108.247509 314.962491,114.52 322.7,114.52 Z" id="Oval" fill="#29235A"></path>
            </g>
        </g>
    </g>
</svg>