<?xml version="1.0" encoding="utf-8"?>
<!-- Generator: Adobe Illustrator 20.1.0, SVG Export Plug-In . SVG Version: 6.00 Build 0)  -->
<svg version="1.1" id="Livello_1" xmlns="http://www.w3.org/2000/svg" xmlns:xlink="http://www.w3.org/1999/xlink" x="0px" y="0px"
	 viewBox="0 0 44 66" style="enable-background:new 0 0 44 66;" xml:space="preserve">
<style type="text/css">
	.st0{fill:#292559;}
	.st1{fill:#19D3C5;}
	.st2{fill:#E6D67F;}
	.st3{fill:#FB91A3;}
	.st4{fill:#FFFFFF;}
	.st5{fill:#F93549;}
</style>
<g>
	<g>
		<path class="st0" d="M8.5,52.3c1.1-0.2,1.8,0.1,2.1,0.9c0.3,0.8,0.4,2.6,0.3,5.3V66H5.4c0,0-2-5.1-2.9-15.9
			C1.7,39.3,0,37.1,0,37.1V27l5.2,18.8L8.5,52.3z"/>
		<path class="st1" d="M1.4,10.6c-1-2.3-1-2.9-0.2-1.7c1.2,1.7,0.3,4.3,0,8.3c-0.4,4.4,0.1,8.9,1.5,13c1.7,5.2,3.3,8.4,3.5,11.3
			c0,0,5.5-1.8,8.6,1c0,0,1.4,0.3,0.3,1.4c0,0-1.7,0.8-2.9,0.5c0,0-2.6-1.6-3.3,0.6c-0.7,2.2-0.7,6.8-0.7,6.8S9,53,10.5,53
			s4.8-1.1,8.5,0s3.4,3.6,2.7,6.3L20.8,62l19.8-5.1c0,0,3.5-3,2.1-6.2c-1.4-3.1-5.6-2.8-5.6-2.8l-7.5,0.2l-1.5,0.2
			c0.1-2-0.1-4-0.6-6c-1.8-6.3-4-12.5-6.8-18.4c0,0-2.1-3.1-2.3-9c0,0-0.2-7.7-3.1-7.9C12.3,6.9,0.3,7.9,0.3,7.9
			C-0.3,8.1,0,9,1.4,10.6L1.4,10.6z"/>
		<path class="st2" d="M5,48l0.7-5.6C6.6,41.6,7,41.2,7,41.2c0-2.2-0.9-5-2.6-8.5c0,0-3.1-9.4-2.8-17c0,0,1.9-7.6-1.2-7.7
			C-0.2,8,0,9.2,0,10.4V27c0,2,0.3,3.7,0.9,4.8C2.5,35.3,5,48,5,48z"/>
		<path class="st0" d="M10.4,58.7c-0.3,0.8-1-5.3,0-6s4.6-0.9,7.6-0.4c3,0.6,4.7,2.7,3.8,6.3S21,62.4,20.4,62
			c-0.8-1-2.1-1.6-3.2-2.3C15.5,58.5,13.3,58.1,10.4,58.7z"/>
		<path class="st3" d="M12.9,43.2l0.6-0.2c0.5-0.3,1-0.4,1.5-0.4c0,0-1.8-2.4-7-1.6c-0.3,0-3,0-3,2.9c0,0,0.5-1.5,1.6-1.7
			C8.8,41.9,11,42.2,12.9,43.2L12.9,43.2z"/>
		<path class="st4" d="M28.7,48c0,0-14.8,2.9-17.6,4.9c0,0,6.7-1.9,10.3,0.8c0,0,3.2,1-0.2,8.4l20.3-5.2c0,0,5.1-4,1.1-7.8
			C38.5,45.2,28.7,48,28.7,48z"/>
		<path class="st1" d="M11,58.2l0,7.8h2c0.3-1,2.7-4.7,8-3.5c0,0-0.9-2-4.5-3.6C12.9,57.4,11,58.2,11,58.2z"/>
		<path class="st3" d="M41,57c0,0-5.5,2.1-6.6,9H13c1.2-2.9,4.5-4.6,7.7-4.1L41,57z"/>
		<path class="st5" d="M7.3,55L5,48.1v-1.3v-3.2c1.1-1.9,2.1-0.9,3,3C8,46.6,7.3,51.6,7.3,55L7.3,55z"/>
		<path class="st4" d="M7.9,57c0,0,0.4,0.3,0.6-2.1c0.1-2.4,0.6-10.1,1.6-11.1c0,0-0.9-0.4-2.2,1.7c-1.2,1.9-0.9,8.8-0.9,8.8L7.9,57
			L7.9,57z"/>
	</g>
</g>
</svg>
