<?xml version="1.0" encoding="utf-8"?>
<!-- Generator: Adobe Illustrator 20.1.0, SVG Export Plug-In . SVG Version: 6.00 Build 0)  -->
<svg version="1.1" id="Livello_1" xmlns="http://www.w3.org/2000/svg" xmlns:xlink="http://www.w3.org/1999/xlink" x="0px" y="0px"
	 viewBox="0 0 44 61.8" style="enable-background:new 0 0 44 61.8;" xml:space="preserve">
<style type="text/css">
	.st0{fill:#292559;}
	.st1{fill:#57B6B2;}
	.st2{fill:#F18FA3;}
	.st3{fill:#FFFFFF;}
</style>
<g>
	<g>
		<path class="st0" d="M42.3,46.6c0,0,0.6-0.2,1.7,1.3c0,0,0.6,1.1-1.9,3.6s-13.6,8-13.6,8s-4.8,2.6-9,0.9
			c-4.2-1.7-10.2-5.2-10.2-5.2L0,50.1v-2.6L14.2,43L42.3,46.6L42.3,46.6z"/>
		<path class="st0" d="M5.2,52.6c-1.9-1.1-3.1-3.2-3.2-5.4c-0.2-4,1.1-6.1,4.3-4.7c3.2,1.4,3.8,3.8,3.7,7.6
			C9.7,54.5,5.2,52.6,5.2,52.6z"/>
		<path class="st1" d="M42.6,37.7L34,52.3l-7.5,4.6L23.3,57L20,55.7V36l2.9-1.3L35.3,27l6.7-2h1L42.6,37.7z"/>
		<path class="st2" d="M42.7,10l0.3,6.2l-0.3,0.6c0,0-14.6,9.3-20,10.7c0,0-3.2,1.6-5.3-0.4L0,17.8v-7.4L42.7,10z M11.8,31.5
			l1.3-0.5l6.9,3.5v21.4L19,57l-8-4.2L11.8,31.5z"/>
		<path class="st3" d="M43.2,16.1c-0.1,0.1-0.2,0.2-0.4,0.3c-1.7,0.9-15.2,8.3-19.5,10.3c-3.1,1.4-5.3,0.1-5.5,0h0L0,17.3v8.9
			c4.4,2.3,11.1,5.8,10.9,5.7s-0.4,0.1-0.5,0.2c-0.2,0.1-0.3,0.3-0.2,0.5v10.2c0,0.2-0.1,0.4-0.3,0.5c-0.2,0.1-0.4,0.1-0.5,0l-9.4-5
			v9.6l3.3,1.7c0.2,0.1-1.4-2.4,0.1-4.5c0.5-0.8,1.3-1.3,2.2-1.5c0.9-0.2,1.8,0.1,2.6,0.6c3.1,2.2,3.5,6,1.2,8
			c-0.2,0.2,0,0.5,0.3,0.6c1,0.5,4.8,2.6,8.7,4.3c4.6,2.1,9.5,0.2,9.9,0h0.1c0.5-0.3,9.2-5,12-6.9c2.9-1.9,2.7-4.5,2.7-4.5v-8.7
			c0-0.2-0.2-0.5-0.4-0.5c-0.2-0.1-0.5,0.1-0.6,0.3c-2.3,4.5-8.2,15.4-13.7,18.6c-3.8,2.3-6.6,0-7.3-0.7c-0.1-0.1-0.2-0.2-0.2-0.4
			V36.9c0-0.2,0.1-0.3,0.2-0.4c0.1-0.1,0.3-0.2,0.4-0.1c1.7,0.1,3.5-0.4,4.9-1.5c0,0,0,0,0.1-0.1L43.6,25c0.2-0.1,0.3-0.3,0.3-0.4
			c0.1-2.1,0.1-4.3,0-6.4C43.6,15.9,43.2,15.9,43.2,16.1z M19.5,54.8c0,0.2-0.1,0.3-0.2,0.5c-0.1,0.1-0.3,0.1-0.5,0l-6.4-2.8
			c-0.2-0.1-0.3-0.3-0.3-0.5V33.4c0-0.2,0.1-0.4,0.3-0.5c0.2-0.1,0.4-0.1,0.5,0c1.5,0.8,2.7,1.4,3.5,1.9c0.9,0.5,1.9,0.9,2.9,1.2
			c0.2,0.1,0.4,0.3,0.4,0.5L19.5,54.8L19.5,54.8z"/>
		<path class="st0" d="M40.7,5.2C39.6,4.7,34.5,2.1,30.4,0H4C1.8,0,0,1.8,0,4v7.7l19.7,9.9c0,0,2.1,0.8,3.8,0
			C25.1,20.8,43,10.9,43,10.9V7.8C42.6,6.7,41.7,5.8,40.7,5.2z"/>
	</g>
</g>
</svg>
