<svg xmlns="http://www.w3.org/2000/svg" width="224" height="158" viewBox="0 0 224 158">
    <g fill="none" fill-rule="evenodd">
        <path fill="#F93549" d="M115.79 89.628c-1.256 0-2.384.35-3.296.977.639.636 1.099 1.47 1.309 2.496.46-.51 1.125-.795 1.988-.795 1.465 0 2.435.8 2.615 2.304h2.765c-.144-3.246-2.478-4.982-5.38-4.982M107.7 100.487c1.256 0 2.384-.35 3.296-.977-.638-.636-1.099-1.47-1.308-2.496-.46.51-1.126.795-1.989.795-1.466 0-2.436-.801-2.615-2.306h-2.764c.142 3.247 2.477 4.984 5.38 4.984"/>
        <path fill="#F93549" d="M118.414 95.502c-.156 1.55-1.119 2.374-2.642 2.374-1.628 0-2.658-.973-2.658-2.816V94.856c0-3.45-2.4-5.295-5.395-5.295-2.941 0-5.289 1.76-5.403 5.05h2.761c.156-1.548 1.119-2.373 2.642-2.373 1.627 0 2.658.973 2.658 2.817v.203c0 3.451 2.4 5.296 5.395 5.296 2.941 0 5.289-1.76 5.402-5.052h-2.76z"/>
        <path stroke="#F93549" d="M111.745 54.222v22.329M93.239 95.058c0-10.222 8.286-18.507 18.506-18.507 10.222 0 18.507 8.285 18.507 18.507 0 10.22-8.285 18.506-18.507 18.506-10.22 0-18.506-8.285-18.506-18.506zM94.128 100.73L51.88 119.34M129.613 100.73l42.25 18.609M99.252 36.541l-4.813-.92V19.864h32.578l2.036 8.338v8.338h-4.8M115.598 36.541h-7.824M129.053 28.203H96.475M120.18 23.84v4.267M124.253 23.84v4.267M116.108 23.84v4.267M112.036 23.84v4.267M107.964 23.84v4.267M103.891 23.84v4.267M99.82 23.84v4.267"/>
        <path stroke="#F93549" d="M106.118 36.541a2.63 2.63 0 1 1-5.26 0 2.63 2.63 0 0 1 5.26 0zM122.597 36.541a2.63 2.63 0 1 1-5.26 0 2.63 2.63 0 0 1 5.26 0z"/>
        <path stroke="#F93549" d="M85.3 27.36C85.3 12.527 97.324.5 112.16.5c14.835 0 26.862 12.026 26.862 26.86 0 14.836-12.027 26.862-26.862 26.862-14.835 0-26.86-12.026-26.86-26.861zM18.733 125.923a2.629 2.629 0 1 1-5.258 0 2.629 2.629 0 0 1 5.258 0zM9.29 140.33l.618-5.197a5.127 5.127 0 0 1 5.117-4.805h2.157a5.127 5.127 0 0 1 5.117 4.805l.618 5.196M35.844 125.923a2.629 2.629 0 1 1-5.258 0 2.629 2.629 0 0 1 5.258 0zM26.401 140.33l.618-5.197a5.128 5.128 0 0 1 5.117-4.805h2.157a5.129 5.129 0 0 1 5.118 4.805l.617 5.196M27.178 123.123a2.629 2.629 0 1 1-5.258 0 2.629 2.629 0 0 1 5.258 0zM19.828 129.048a5.117 5.117 0 0 1 3.643-1.519h2.155c1.354 0 2.591.526 3.51 1.39M38.984 128.288v-7.794M40.564 121.206h4.868l-1.842 1.948 1.842 1.948h-4.868"/>
        <path stroke="#F93549" d="M.5 130.411c0-14.835 12.026-26.86 26.86-26.86 14.836 0 26.863 12.025 26.863 26.86 0 14.835-12.027 26.861-26.862 26.861C12.526 157.272.5 145.246.5 130.412zM199.392 121.897a3.288 3.288 0 1 1-6.575-.002 3.288 3.288 0 0 1 6.575.002zM187.583 142.215l.773-8.8a6.412 6.412 0 0 1 6.4-6.01h2.697a6.412 6.412 0 0 1 6.4 6.01l.772 8.8"/>
        <path stroke="#F93549" d="M169.243 130.411c0-14.835 12.026-26.86 26.861-26.86s26.861 12.025 26.861 26.86c0 14.835-12.026 26.861-26.86 26.861-14.836 0-26.862-12.026-26.862-26.86z"/>
    </g>
</svg>
