<svg xmlns="http://www.w3.org/2000/svg" width="51" height="48" viewBox="0 0 51 48">
    <g fill="none" fill-rule="evenodd">
        <g fill="#FF671D" fill-rule="nonzero">
            <path d="M36.453 17.984a4.124 4.124 0 1 1-8.248 0 4.124 4.124 0 0 1 8.248 0zm-1 0a3.124 3.124 0 1 0-6.248 0 3.124 3.124 0 0 0 6.248 0zM23.432 37.903l.852-7.163c.22-3.488 3.091-6.183 6.558-6.183h2.973a6.57 6.57 0 0 1 6.557 6.155l.854 7.19.993-.117-.851-7.163c-.25-3.96-3.557-7.065-7.553-7.065h-2.973a7.57 7.57 0 0 0-7.554 7.092l-.85 7.136.994.118zM24.98 14.124a4.124 4.124 0 1 1-8.247 0 4.124 4.124 0 0 1 8.248 0zm-1 0a3.124 3.124 0 1 0-6.247 0 3.124 3.124 0 0 0 6.248 0zM14.703 22.643a6.553 6.553 0 0 1 4.667-1.946h2.973c1.69 0 3.285.644 4.497 1.78l.684-.728a7.552 7.552 0 0 0-5.181-2.052H19.37a7.553 7.553 0 0 0-5.377 2.242l.71.704zM42.222 21.244V10.5h-1v10.744zM47.117 13.773l2.067 2.186h-5.551v1h7.873l-3.013-3.186 3.012-3.187h-7.872v1h5.55zM14.779 25.506a6.563 6.563 0 0 1 3.154 5.207l.854 7.19.993-.118-.852-7.163a7.548 7.548 0 0 0-3.63-5.971l-.52.855zM.993 37.903l.852-7.163a6.576 6.576 0 0 1 3.121-5.212l-.523-.852a7.56 7.56 0 0 0-3.594 5.973L0 37.785l.994.118zM12.663 38.344h-.627a2.947 2.947 0 0 1-2.947-2.947v-1.572a2.947 2.947 0 0 1 2.947-2.947h.627a2.947 2.947 0 0 1 2.947 2.947v1.572a2.947 2.947 0 0 1-2.947 2.947zm0-1a1.947 1.947 0 0 0 1.947-1.947v-1.572a1.947 1.947 0 0 0-1.947-1.947h-.627a1.947 1.947 0 0 0-1.947 1.947v1.572c0 1.075.872 1.947 1.947 1.947h.627z"/>
            <path d="M9.59 34.882h5.68v-1H9.59zM32.963 38.096H31.96a4.414 4.414 0 0 1-4.414-4.414v-2.514a4.413 4.413 0 0 1 4.414-4.413h1.003a4.414 4.414 0 0 1 4.414 4.413v2.514a4.415 4.415 0 0 1-4.414 4.414zm0-1a3.415 3.415 0 0 0 3.414-3.414v-2.514a3.414 3.414 0 0 0-3.414-3.413H31.96a3.413 3.413 0 0 0-3.414 3.413v2.514a3.414 3.414 0 0 0 3.414 3.414h1.003z"/>
            <path d="M28.046 32.559h9.085v-1h-9.085zM11.502 31.14L7.24 23.247l-.88.475 4.262 7.895zM5.766 17.984a4.124 4.124 0 1 0 8.247 0 4.124 4.124 0 0 0-8.248 0zm1.48-1.666a3.124 3.124 0 1 1-.48 1.666c0-.599.168-1.171.48-1.666l-.423-.267.423.267zM14.86 14.273h9.27v-1h-9.27zM35.953 16.842h-6.73v1h6.73zM32.359 26.955l-2.406-3.198-.8.6 2.407 3.199zM33.353 27.568l2.563-3.198-.78-.626-2.563 3.198z"/>
        </g>
        <path stroke="#FF671D" stroke-width="15" d="M-301.5-2155.5h4962v2964h-4962z"/>
    </g>
</svg>
