<svg xmlns="http://www.w3.org/2000/svg" width="104" height="51" viewBox="0 0 104 51">
    <g fill="none" fill-rule="evenodd">
        <g fill="#FF671D" fill-rule="nonzero">
            <path d="M35.176 17.057a6.251 6.251 0 1 1-12.503 0 6.251 6.251 0 0 1 12.503 0zm-1.6 0a4.652 4.652 0 1 0-9.304 0 4.652 4.652 0 0 0 9.304 0zM15.589 47.024L16.87 36.25c.33-5.223 4.627-9.257 9.817-9.257h4.472a9.832 9.832 0 0 1 9.814 9.213l1.285 10.818 1.589-.189-1.281-10.774c-.376-5.978-5.371-10.668-11.407-10.668h-4.472c-6.035 0-11.03 4.69-11.41 10.712L14 46.835l1.589.19zM68.895 17.057a6.251 6.251 0 1 1-12.502 0 6.251 6.251 0 0 1 12.502 0zm-1.6 0a4.652 4.652 0 1 0-9.304 0 4.652 4.652 0 0 0 9.304 0zM49.308 47.024L50.59 36.25c.33-5.223 4.627-9.257 9.817-9.257h4.473a9.832 9.832 0 0 1 9.813 9.213l1.285 10.818 1.589-.189-1.281-10.774c-.376-5.978-5.371-10.668-11.406-10.668h-4.472c-6.036 0-11.031 4.69-11.41 10.712l-1.279 10.73 1.589.19zM51.638 11.252a6.251 6.251 0 1 1-12.502 0 6.251 6.251 0 0 1 12.502 0zm-1.6 0a4.651 4.651 0 1 0-9.303-.001 4.651 4.651 0 0 0 9.303.001zM36.165 24.1a9.808 9.808 0 0 1 6.985-2.913h4.473c2.532 0 4.919.963 6.73 2.664l1.096-1.166a11.401 11.401 0 0 0-7.826-3.098H43.15a11.408 11.408 0 0 0-8.121 3.386l1.136 1.127zM77.573 21.962V5.8h-1.6v16.162zM84.82 10.723l3.064 3.24h-8.238v1.6h11.953l-4.576-4.84 4.576-4.84H79.646v1.6h8.238z"/>
        </g>
        <path stroke="#FF671D" stroke-width="15" d="M-543.5-2224.5h4962v2964h-4962z"/>
    </g>
</svg>
