<svg xmlns="http://www.w3.org/2000/svg" width="51" height="48" viewBox="0 0 51 48">
    <g fill="none" fill-rule="evenodd">
        <g fill="#FF671D">
            <path d="M25.79 11a3.128 3.128 0 0 0-3.125 3.124 3.128 3.128 0 0 0 3.125 3.124 3.128 3.128 0 0 0 3.125-3.124A3.128 3.128 0 0 0 25.79 11m0 7.248a4.13 4.13 0 0 1-4.125-4.124A4.13 4.13 0 0 1 25.79 10a4.13 4.13 0 0 1 4.125 4.124 4.13 4.13 0 0 1-4.125 4.124M19.636 22.642l-.71-.703a7.516 7.516 0 0 1 5.377-2.242h2.973c1.932 0 3.772.728 5.181 2.051l-.685.73a6.548 6.548 0 0 0-4.496-1.78h-2.973a6.528 6.528 0 0 0-4.667 1.944"/>
            <path d="M19.359 13.846h9.967v-1h-9.967zM21.787 37.845l-.852-7.163a6.59 6.59 0 0 0-3.156-5.234l.518-.856a7.58 7.58 0 0 1 3.634 6l.85 7.136-.994.117zM3.993 37.845L3 37.728l.852-7.163a7.572 7.572 0 0 1 3.59-5.948l.524.852a6.584 6.584 0 0 0-3.119 5.186l-.854 7.19zM11.227 26.741a1.95 1.95 0 0 0-1.947 1.947v6.651a1.95 1.95 0 0 0 1.947 1.947h3.167a1.95 1.95 0 0 0 1.947-1.947v-6.65a1.95 1.95 0 0 0-1.947-1.948h-3.167zm3.167 11.545h-3.167A2.95 2.95 0 0 1 8.28 35.34v-6.65a2.95 2.95 0 0 1 2.947-2.948h3.167a2.95 2.95 0 0 1 2.947 2.947v6.651a2.95 2.95 0 0 1-2.947 2.947z"/>
            <path d="M13.26 31.37h-.9a1.852 1.852 0 0 1-1.85-1.85l-.578-3.02.982-.187.588 3.115c.009.561.39.942.858.942h.9a.85.85 0 0 0 .85-.85l.552-3.2.985.172-.544 3.114c.007.934-.822 1.764-1.842 1.764M8.78 33.554H17v-1H8.78zM14.654 26.241h1v-3.16h-1zM9.923 26.175h1v-3.16h-1zM12.89 14.8a3.112 3.112 0 0 0-2.644 1.459 3.129 3.129 0 0 0 2.644 4.791 3.129 3.129 0 0 0 3.125-3.125A3.128 3.128 0 0 0 12.89 14.8m0 7.249a4.13 4.13 0 0 1-4.125-4.125c0-.781.22-1.542.636-2.2a4.106 4.106 0 0 1 3.49-1.924 4.13 4.13 0 0 1 4.124 4.124 4.13 4.13 0 0 1-4.125 4.125"/>
            <path d="M16.515 17.552H9.443l-.09-1h7.162zM47.403 37.845l-.852-7.163a6.59 6.59 0 0 0-3.156-5.234l.518-.856a7.58 7.58 0 0 1 3.634 6l.849 7.136-.993.117zM29.609 37.845l-.993-.117.852-7.163a7.574 7.574 0 0 1 3.589-5.948l.525.852a6.584 6.584 0 0 0-3.12 5.186l-.853 7.19zM36.843 26.741a1.95 1.95 0 0 0-1.947 1.947v6.651a1.95 1.95 0 0 0 1.947 1.947h3.167a1.95 1.95 0 0 0 1.947-1.947v-6.65a1.95 1.95 0 0 0-1.947-1.948h-3.167zm3.167 11.545h-3.167a2.95 2.95 0 0 1-2.947-2.947v-6.65a2.95 2.95 0 0 1 2.947-2.948h3.167a2.95 2.95 0 0 1 2.947 2.947v6.651a2.95 2.95 0 0 1-2.947 2.947z"/>
            <path d="M38.877 31.37h-.902a1.852 1.852 0 0 1-1.849-1.85l-.578-3.02.981-.187.588 3.115c.01.561.39.942.858.942h.901a.85.85 0 0 0 .85-.85l.552-3.2.985.172-.544 3.114c.006.934-.822 1.764-1.843 1.764M34.396 33.554h8.22v-1h-8.22zM40.27 26.241h1v-3.16h-1zM35.539 26.175h1v-3.16h-1zM38.506 14.8a3.112 3.112 0 0 0-2.644 1.459 3.129 3.129 0 0 0 2.644 4.791 3.129 3.129 0 0 0 3.125-3.125 3.128 3.128 0 0 0-3.125-3.124m0 7.249a4.13 4.13 0 0 1-4.125-4.125c0-.781.22-1.542.636-2.2a4.106 4.106 0 0 1 3.489-1.924 4.13 4.13 0 0 1 4.125 4.124 4.13 4.13 0 0 1-4.125 4.125"/>
            <path d="M42.13 17.552h-7.072l-.089-1h7.161z"/>
        </g>
        <path stroke="#FF671D" stroke-width="15" d="M-360.5-2155.5h4962v2964h-4962z"/>
    </g>
</svg>
