<?xml version="1.0" encoding="utf-8"?>
<!-- Generator: Adobe Illustrator 20.1.0, SVG Export Plug-In . SVG Version: 6.00 Build 0)  -->
<svg version="1.1" id="Livello_1" xmlns="http://www.w3.org/2000/svg" xmlns:xlink="http://www.w3.org/1999/xlink" x="0px" y="0px"
	 viewBox="0 0 16 16" style="enable-background:new 0 0 16 16;" xml:space="preserve">
<style type="text/css">
	.st0{fill:#7B868C;}
	.st1{fill:none;stroke:#FF671D;stroke-width:15;}
</style>
<g>
	<path class="st0" d="M14.7,13.6l-3.8-3.8C11.6,8.8,12,7.7,12,6.5c0-3-2.5-5.5-5.5-5.5C3.5,1,1,3.4,1,6.4c0,0,0,0,0,0.1
		c0,3,2.5,5.5,5.5,5.5c1.2,0,2.3-0.4,3.2-1.1l0,0l3.8,3.8c0.3,0.3,0.8,0.3,1.2,0S15.1,13.9,14.7,13.6L14.7,13.6L14.7,13.6z
		 M6.5,10.9c-2.4,0-4.4-2-4.4-4.4c0-2.4,1.9-4.4,4.3-4.4c0,0,0,0,0,0c2.4,0,4.4,2,4.4,4.4C10.9,8.9,8.9,10.9,6.5,10.9
		C6.5,10.9,6.5,10.9,6.5,10.9z"/>
	<path class="st1" d="M-421.5-1826.5h4962v2964h-4962V-1826.5z"/>
</g>
</svg>
