<?xml version="1.0" encoding="utf-8"?>
<!-- Generator: Adobe Illustrator 20.1.0, SVG Export Plug-In . SVG Version: 6.00 Build 0)  -->
<svg version="1.1" id="Livello_1" xmlns="http://www.w3.org/2000/svg" xmlns:xlink="http://www.w3.org/1999/xlink" x="0px" y="0px"
	 viewBox="0 0 24 24" style="enable-background:new 0 0 24 24;" xml:space="preserve">
<style type="text/css">
	.st0{fill:#FF671D;}
	.st1{fill:none;stroke:#FF671D;stroke-width:15;}
</style>
<g>
	<g>
		<path class="st0" d="M6,5.2V2.5h11.6v2.7H6z M7,4.2h9.6V3.5H7V4.2z M11.8,17C8.6,17,6,14.4,6,11.2l0,0v-0.5h11.5v0.5
			C17.5,14.4,15,17,11.8,17L11.8,17L11.8,17z M11.8,16c2.4,0,4.5-1.8,4.7-4.3H7.1C7.3,14.1,9.4,16,11.8,16z"/>
		<path class="st0" d="M14.5,17.1l1-0.2l0.9,5H7.3l0.9-5l1,0.2L8.4,21h6.7L14.5,17.1z M7.8,5.2l0.4,4.7l-1,0.1L6.7,4.2h10.1L16.3,10
			l-1-0.1l0.4-4.7L7.8,5.2z"/>
	</g>
	<path class="st1" d="M-301.5-1989.5h4962v2964h-4962V-1989.5z"/>
</g>
</svg>
