<?xml version="1.0" encoding="UTF-8"?>
<svg width="320px" height="166px" viewBox="0 0 320 166" version="1.1" xmlns="http://www.w3.org/2000/svg" xmlns:xlink="http://www.w3.org/1999/xlink">
    <!-- Generator: Sketch 54.1 (76490) - https://sketchapp.com -->
    <title>Mobile / Aggregati header@1.5x</title>
    <desc>Created with Sketch.</desc>
    <g id="Mobile" stroke="none" stroke-width="1" fill="none" fill-rule="evenodd">
        <g id="Mobile-/-04-Aggregati-/-01-No-filter" transform="translate(0.000000, -49.000000)" fill-rule="nonzero">
            <g id="Mobile-/-Aggregati-header" transform="translate(0.000000, 49.000000)">
                <rect id="Rectangle" fill="#2DD2C5" x="0" y="1" width="320" height="51"></rect>
                <path d="M0,1 L0,1 L0,51 L87,49.3558994 C87,49.3558994 0.84750843,41.1289491 0,1 Z" id="Path" fill="#F7394E"></path>
                <rect id="Rectangle" fill="#292559" x="0" y="38" width="320" height="128"></rect>
                <path d="M320,120 L256.247205,93.1980525 C216.929928,76.6733421 175.193977,66.6594207 132.670868,63.5477462 L0,53.822915 L0,37 L320,37 L320,120 Z" id="Path" fill="#FF682E"></path>
                <path d="M160.032527,140.477886 L0,143.735751 L0,166 L320,166 L320,67 C320,107.599513 248.369181,140.477886 160.032527,140.477886 Z" id="Path" fill="#F992A4"></path>
                <path d="M320,0 C320,0 266.328486,37 179,37 L320,37 L320,0 Z" id="Path" fill="#FF682E"></path>
            </g>
        </g>
    </g>
</svg>