<?xml version="1.0" encoding="UTF-8"?>
<svg width="320px" height="122px" viewBox="0 0 320 122" version="1.1" xmlns="http://www.w3.org/2000/svg" xmlns:xlink="http://www.w3.org/1999/xlink">
    <!-- Generator: Sketch 54.1 (76490) - https://sketchapp.com -->
    <title>mobile / chi_siamo_header@1.5x</title>
    <desc>Created with Sketch.</desc>
    <g id="Mobile" stroke="none" stroke-width="1" fill="none" fill-rule="evenodd">
        <g id="Mobile-/-06-Chi-siam0" transform="translate(0.000000, -50.000000)">
            <g id="mobile-/-chi_siamo_header" transform="translate(0.000000, 50.000000)">
                <rect id="Rectangle" fill="#19D3C5" fill-rule="nonzero" x="0" y="0" width="320" height="72.9540373"></rect>
                <rect id="Rectangle" fill="#D9D394" fill-rule="nonzero" x="0" y="71" width="320" height="50.2757764"></rect>
                <path d="M319.950016,121.081988 L256.15995,106.175155 C215.591473,96.845647 174.227385,91.3454541 132.618557,89.7478261 L0,84.3515528 L0,75 L320,75 L319.950016,121.081988 Z" id="Path" fill="#FB91A3" fill-rule="nonzero"></path>
                <path d="M159.950016,40.8049689 L0,42.5937888 L0,76.6509317 L320,76.6509317 L320,0 C319.950016,22.5291925 248.312402,40.8049689 159.950016,40.8049689 Z" id="Path" fill="#FF671D" fill-rule="nonzero"></path>
                <text id="Chi-siamo" fill="#FFFFFF" font-family="F37Ginger, F37 Ginger" font-size="20" font-weight="normal">
                    <tspan x="114" y="65">Chi siamo</tspan>
                </text>
            </g>
        </g>
    </g>
</svg>