<?xml version="1.0" encoding="UTF-8"?>
<svg width="320px" height="120px" viewBox="0 0 320 120" version="1.1" xmlns="http://www.w3.org/2000/svg" xmlns:xlink="http://www.w3.org/1999/xlink">
    <!-- Generator: Sketch 54.1 (76490) - https://sketchapp.com -->
    <title>mobile / contacts header@1.5x</title>
    <desc>Created with Sketch.</desc>
    <g id="Mobile" stroke="none" stroke-width="1" fill="none" fill-rule="evenodd">
        <g id="Mobile-/-08-Contattaci" transform="translate(0.000000, -50.000000)" fill-rule="nonzero">
            <g id="mobile-/-contacts-header" transform="translate(0.000000, 50.000000)">
                <rect id="Rectangle" fill="#FB91A3" x="0" y="0" width="320" height="79.04"></rect>
                <rect id="Rectangle" fill="#19D3C5" x="0" y="79" width="320" height="40.96"></rect>
                <path d="M320,0 C320,0 39.9387234,2.42 0,46.47 L0,0 L320,0 Z" id="Path" fill="#FF671D"></path>
                <polygon id="Path" fill="#29235A" points="0 79 0 111.28 320 92.48 320 79"></polygon>
            </g>
        </g>
    </g>
</svg>