<?xml version="1.0" encoding="UTF-8"?>
<svg width="1440px" height="340px" viewBox="0 0 1440 340" version="1.1" xmlns="http://www.w3.org/2000/svg" xmlns:xlink="http://www.w3.org/1999/xlink">
    <!-- Generator: Sketch 54.1 (76490) - https://sketchapp.com -->
    <title>Desktop / FAQ header@1.5x</title>
    <desc>Created with Sketch.</desc>
    <g id="Responsive" stroke="none" stroke-width="1" fill="none" fill-rule="evenodd">
        <g id="Desktop-/-Other-pages-Copy" transform="translate(0.000000, -75.000000)" fill-rule="nonzero">
            <g id="Desktop-/-FAQ-header" transform="translate(0.000000, 75.000000)">
                <rect id="Rectangle" fill="#F93549" x="0.03" y="0" width="1439.97" height="196.65"></rect>
                <rect id="Rectangle" fill="#D9D394" x="0.03" y="196.65" width="1439.97" height="143.35"></rect>
                <path d="M1440,301.39 L1338.84,259 C1276.51,232.82 1063,217 995.59,212 L0,196.65 L0,141.65 L1440,56.65 L1440,301.39 Z" id="Path" fill="#FB91A3"></path>
                <path d="M1186.27,317.13 L0,322.29 L0,340 L1440,340 L1440,200.79 C1440,265 1326.4,317.13 1186.27,317.13 Z" id="Path" fill="#FF671D"></path>
            </g>
        </g>
    </g>
</svg>