<svg xmlns="http://www.w3.org/2000/svg" width="28" height="28" viewBox="0 0 28 28">
    <g fill="#19D3C5" fill-rule="nonzero">
        <path d="M26.414 13.932c0-6.893-5.588-12.481-12.482-12.481-6.893 0-12.481 5.588-12.481 12.481 0 6.894 5.588 12.482 12.481 12.482 6.894 0 12.482-5.588 12.482-12.482zm1.45 0c0 7.695-6.237 13.933-13.932 13.933C6.238 27.865 0 21.627 0 13.932 0 6.238 6.238 0 13.932 0c7.695 0 13.933 6.238 13.933 13.932z"/>
        <path d="M13.207 13.207V7.028h1.451v7.63H8.675v-1.451z"/>
    </g>
</svg>
