<svg xmlns="http://www.w3.org/2000/svg" width="16" height="16" viewBox="0 0 16 16">
    <g fill="none" fill-rule="evenodd">
        <g stroke="#323E48">
            <path d="M11.726 4.806A3.806 3.806 0 1 0 5.78 7.952l2.139 2.14 2.14-2.14a3.798 3.798 0 0 0 1.666-3.146z"/>
            <path d="M9.03 4.753a1.11 1.11 0 1 1-2.22 0 1.11 1.11 0 0 1 2.22 0zM4 9.97a3.045 3.045 0 0 0 3.046 3.045h4.078"/>
            <path d="M9.986 11.162l1.853 1.853-1.853 1.853"/>
        </g>
        <path stroke="#FF671D" stroke-width="15" d="M-421.5-1903.5h4962v2964h-4962z"/>
    </g>
</svg>
