<svg xmlns="http://www.w3.org/2000/svg" xmlns:xlink="http://www.w3.org/1999/xlink" width="47" height="47" viewBox="0 0 47 47">
    <defs>
        <path id="a" d="M0 46.6h46.6V0H0z"/>
    </defs>
    <g fill="none" fill-rule="evenodd">
        <path fill="#19D3C5" d="M23.3 1.6c-11.966 0-21.7 9.734-21.7 21.7S11.334 45 23.3 45 45 35.266 45 23.3 35.266 1.6 23.3 1.6m0 45C10.452 46.6 0 36.148 0 23.3 0 10.453 10.452 0 23.3 0s23.3 10.453 23.3 23.3c0 12.848-10.452 23.3-23.3 23.3"/>
        <path fill="#19D3C5" d="M14.472 23.311a2.057 2.057 0 0 0-2.055 2.055c0 1.134.922 2.055 2.055 2.055a2.057 2.057 0 0 0 2.055-2.055 2.057 2.057 0 0 0-2.055-2.055m0 5.71a3.659 3.659 0 0 1-3.654-3.655 3.659 3.659 0 0 1 3.654-3.654 3.659 3.659 0 0 1 3.654 3.654 3.659 3.659 0 0 1-3.654 3.654M20.4 35.417a4.776 4.776 0 0 0-4.758-4.468H13.3c-2.51 0-4.6 1.963-4.757 4.468l-1.598-.1A6.38 6.38 0 0 1 13.3 29.35h2.342a6.38 6.38 0 0 1 6.356 5.967l-1.598.1zM32.128 23.311a2.057 2.057 0 0 0-2.055 2.055c0 1.134.922 2.055 2.055 2.055a2.057 2.057 0 0 0 2.055-2.055 2.057 2.057 0 0 0-2.055-2.055m0 5.71a3.659 3.659 0 0 1-3.654-3.655 3.659 3.659 0 0 1 3.654-3.654 3.659 3.659 0 0 1 3.654 3.654 3.659 3.659 0 0 1-3.654 3.654M26.2 35.418l-1.599-.102a6.381 6.381 0 0 1 6.356-5.966H33.3a6.38 6.38 0 0 1 6.355 5.967l-1.598.1a4.775 4.775 0 0 0-4.757-4.468h-2.342c-2.51 0-4.6 1.963-4.758 4.469M23.092 20.271a2.057 2.057 0 0 0-2.055 2.055c0 1.133.922 2.055 2.055 2.055a2.058 2.058 0 0 0 2.056-2.055 2.058 2.058 0 0 0-2.056-2.055m0 5.71a3.659 3.659 0 0 1-3.654-3.655 3.659 3.659 0 0 1 3.654-3.654 3.659 3.659 0 0 1 3.655 3.654 3.659 3.659 0 0 1-3.655 3.655M18.534 29.322l-1.137-1.125a6.322 6.322 0 0 1 4.524-1.887h2.342a6.35 6.35 0 0 1 4.36 1.726l-1.097 1.166a4.754 4.754 0 0 0-3.263-1.292h-2.342a4.735 4.735 0 0 0-3.387 1.412"/>
        <mask id="b" fill="#fff">
            <use xlink:href="#a"/>
        </mask>
        <path fill="#19D3C5" d="M32.047 16.01h1.6v-5.977h-1.6z" mask="url(#b)"/>
        <path fill="#19D3C5" d="M29.858 13.822h5.978v-1.6h-5.978z" mask="url(#b)"/>
        <path fill="#19D3C5" d="M32.848 8.874a4.151 4.151 0 0 0-4.147 4.147 4.151 4.151 0 0 0 4.147 4.148 4.151 4.151 0 0 0 4.147-4.148 4.151 4.151 0 0 0-4.147-4.147m0 9.895a5.754 5.754 0 0 1-5.747-5.748 5.754 5.754 0 0 1 5.747-5.747 5.754 5.754 0 0 1 5.747 5.747 5.754 5.754 0 0 1-5.747 5.748" mask="url(#b)"/>
    </g>
</svg>
