<?xml version="1.0" encoding="utf-8"?>
<!-- Generator: Adobe Illustrator 20.1.0, SVG Export Plug-In . SVG Version: 6.00 Build 0)  -->
<svg version="1.1" id="Livello_1" xmlns="http://www.w3.org/2000/svg" xmlns:xlink="http://www.w3.org/1999/xlink" x="0px" y="0px"
	 viewBox="0 0 16 16" style="enable-background:new 0 0 16 16;" xml:space="preserve">
<style type="text/css">
	.st0{fill:#FF671D;}
	.st1{fill:none;stroke:#FF671D;stroke-width:15;}
</style>
<g>
	<g>
		<path class="st0" d="M5,6h8.5C13.7,6,14,5.8,14,5.5S13.7,5,13.5,5H5C4.7,5,4.5,5.2,4.5,5.5S4.7,6,5,6z"/>
		<path class="st0" d="M3.5,7.5c1.1,0,2-0.9,2-2s-0.9-2-2-2s-2,0.9-2,2S2.4,7.5,3.5,7.5z M3.5,6.5c-0.6,0-1-0.4-1-1s0.4-1,1-1
			s1,0.4,1,1S4.1,6.5,3.5,6.5z M2.5,12H11c0.3,0,0.5-0.2,0.5-0.5S11.3,11,11,11H2.5C2.2,11,2,11.2,2,11.5S2.2,12,2.5,12z"/>
		<path class="st0" d="M12.5,13.5c1.1,0,2-0.9,2-2s-0.9-2-2-2s-2,0.9-2,2S11.4,13.5,12.5,13.5z M12.5,12.5c-0.6,0-1-0.4-1-1
			s0.4-1,1-1s1,0.4,1,1S13.1,12.5,12.5,12.5z"/>
	</g>
	<path class="st1" d="M-381.5-1826.5h4962v2964h-4962V-1826.5z"/>
</g>
</svg>
