<svg xmlns="http://www.w3.org/2000/svg" width="24" height="24" viewBox="0 0 24 24">
    <g fill="none" fill-rule="evenodd">
        <g stroke="#7B868C" stroke-linecap="round" stroke-width=".98">
            <path d="M18 8.49l3.695 3.696L18 15.883M3.296 12.186H21.27M6.39 15.882l-3.697-3.696L6.39 8.49"/>
        </g>
        <path stroke="#FF671D" stroke-width="15" d="M-357.5-1929.5h4962v2964h-4962z"/>
    </g>
</svg>
