<svg xmlns="http://www.w3.org/2000/svg" width="47" height="47" viewBox="0 0 47 47">
    <g fill="#19D3C5" fill-rule="evenodd">
        <path d="M23.3 1.6c-11.966 0-21.7 9.734-21.7 21.7S11.334 45 23.3 45 45 35.266 45 23.3 35.266 1.6 23.3 1.6m0 45C10.452 46.6 0 36.148 0 23.3 0 10.453 10.452 0 23.3 0s23.3 10.453 23.3 23.3c0 12.848-10.452 23.3-23.3 23.3"/>
        <path d="M22.922 25.64a7.584 7.584 0 0 1-.015 2.191l.006 1.496a10.929 10.929 0 0 1 1.643-2.106 11.08 11.08 0 0 1 9.582-3.083l.569.093.093.569a11.073 11.073 0 0 1-3.082 9.581 11.068 11.068 0 0 1-9.582 3.083l-.57-.093-.092-.569a11.064 11.064 0 0 1-.134-2.19h-.009l-.02-5.964a7.516 7.516 0 0 1-5.585-2.186 7.528 7.528 0 0 1-2.094-6.51l.093-.568.569-.093a7.528 7.528 0 0 1 7.1 2.76v-2.484a7.33 7.33 0 0 1 2.097-5.92 7.337 7.337 0 0 1 6.342-2.04l.569.093.093.569a7.335 7.335 0 0 1-2.041 6.342 7.32 7.32 0 0 1-5.46 2.128v4.9h-.072zm.072-6.502a5.703 5.703 0 0 0 4.329-1.658 5.727 5.727 0 0 0 1.657-4.36 5.765 5.765 0 0 0-4.358 1.659 5.725 5.725 0 0 0-1.665 4.167h.037v.192zm-.017 16.822a9.474 9.474 0 0 0 7.61-2.71 9.463 9.463 0 0 0 2.708-7.608 9.479 9.479 0 0 0-7.608 2.71 9.473 9.473 0 0 0-2.71 7.608zm-7.83-15.154a5.913 5.913 0 0 0 1.71 4.525 5.837 5.837 0 0 0 4.527 1.71 5.852 5.852 0 0 0-1.713-4.525 5.936 5.936 0 0 0-4.525-1.71z"/>
    </g>
</svg>
