<svg xmlns="http://www.w3.org/2000/svg" width="24" height="24" viewBox="0 0 24 24">
    <g fill="none" fill-rule="evenodd">
        <g stroke="#7B868C">
            <path d="M6.497 3.055l-2 18.11M19.607 21.165l-2-18.11"/>
            <path stroke-dasharray="4,3" d="M11.911 3.055v18.11"/>
        </g>
        <path stroke="#FF671D" stroke-width="15" d="M-357.5-2009.5h4962v2964h-4962z"/>
    </g>
</svg>
