<svg xmlns="http://www.w3.org/2000/svg" width="22" height="22" viewBox="0 0 22 22">
    <g fill="none" fill-rule="evenodd">
        <path d="M-10-10h42v42h-42z"/>
        <path fill="#FFF" d="M0 11C0 4.925 4.925 0 11 0s11 4.925 11 11-4.925 11-11 11S0 17.075 0 11zm7.774-1.89H5.28v7.49h2.493V9.11zm.164-2.316C7.922 6.059 7.396 5.5 6.544 5.5c-.853 0-1.41.56-1.41 1.294 0 .719.54 1.294 1.377 1.294h.016c.87 0 1.41-.575 1.41-1.294zm8.826 5.512c0-2.3-1.23-3.371-2.87-3.371-1.324 0-1.917.727-2.247 1.237V9.11H9.153c.033.703 0 7.49 0 7.49h2.494v-4.183c0-.224.016-.447.082-.608.18-.447.59-.91 1.279-.91.902 0 1.263.687 1.263 1.694V16.6h2.493v-4.295z"/>
    </g>
</svg>
