<svg xmlns="http://www.w3.org/2000/svg" width="25" height="24" viewBox="0 0 25 24">
    <g fill="none" fill-rule="evenodd">
        <g fill="#7B868C">
            <path d="M16.52 14.024l-.498-8.628A3.633 3.633 0 0 0 12.401 2h-.252a3.633 3.633 0 0 0-3.62 3.398l-.497 8.626-.999-.059.498-8.628A4.634 4.634 0 0 1 12.15 1h.254a4.634 4.634 0 0 1 4.617 4.336l.498 8.63-.999.058z"/>
            <path d="M7.282 14.493c-.697 0-1.264.566-1.264 1.264 0 .696.567 1.262 1.264 1.262H17.39a1.263 1.263 0 0 0 0-2.526H7.282zM17.39 18.02H7.282a2.265 2.265 0 0 1-2.264-2.262 2.267 2.267 0 0 1 2.264-2.264H17.39a2.266 2.266 0 0 1 2.263 2.264 2.264 2.264 0 0 1-2.263 2.262zM5.166 10.412a.168.168 0 0 0-.166.166v1.332c0 .18.332.18.332 0v-1.332a.168.168 0 0 0-.166-.166m0 2.664A1.167 1.167 0 0 1 4 11.91v-1.332a1.167 1.167 0 0 1 2.332 0v1.332c0 .643-.523 1.166-1.166 1.166M19.506 10.412a.168.168 0 0 0-.166.166v1.332c0 .18.332.18.332 0v-1.332a.168.168 0 0 0-.166-.166m0 2.664a1.167 1.167 0 0 1-1.166-1.166v-1.332a1.167 1.167 0 0 1 2.332 0v1.332c0 .643-.523 1.166-1.166 1.166M7.774 22.92h1v-3.918h-1zM15.777 22.92h1v-3.918h-1z"/>
            <path d="M14.435 23.42h3.683v-1h-3.683zM6.433 23.42h3.683v-1H6.433z"/>
        </g>
        <path stroke="#FF671D" stroke-width="15" d="M-413.5-1959.5h4962v2964h-4962z"/>
    </g>
</svg>
