<svg xmlns="http://www.w3.org/2000/svg" width="25" height="24" viewBox="0 0 25 24">
    <g fill="none" fill-rule="evenodd">
        <path stroke="#7B868C" d="M22.974 12.236c0 5.931-4.808 10.738-10.737 10.738-5.93 0-10.738-4.806-10.738-10.738C1.5 6.306 6.307 1.5 12.237 1.5s10.737 4.806 10.737 10.736z"/>
        <path fill="#7B868C" d="M13.663 15.277c.164-.264.246-.552.246-.864a1.2 1.2 0 0 0-.24-.76c-.16-.206-.387-.39-.683-.555v2.763c.288-.127.514-.322.677-.584zm-2.417-4.687c.154.206.375.388.663.545v-2.56a1.256 1.256 0 0 0-.663.462c-.153.212-.23.469-.23.77 0 .314.077.574.23.783zm-1.142 4.083c.269.356.544.648.829.879.284.23.609.375.976.436v-3.38a10.308 10.308 0 0 1-.636-.304 4.424 4.424 0 0 1-.562-.368 2.387 2.387 0 0 1-.494-.49 2.385 2.385 0 0 1-.311-.641 2.713 2.713 0 0 1-.127-.851c0-.686.187-1.266.562-1.737.375-.473.897-.77 1.568-.892v-.946h1.077v.908c.698.079 1.333.374 1.906.883l-.693 1.015c-.383-.347-.787-.563-1.213-.647v3.093c.213.092.392.174.535.248.145.07.309.165.495.279.185.114.337.235.456.365.118.129.233.279.345.454.113.173.196.373.249.6.053.226.079.475.079.747 0 .732-.196 1.349-.588 1.85-.393.503-.916.826-1.571.97v.952h-1.077V17.2a3.419 3.419 0 0 1-1.456-.483A3.487 3.487 0 0 1 9.329 15.6l.775-.927z"/>
        <path stroke="#FF671D" stroke-width="15" d="M-385.5-1959.5h4962v2964h-4962z"/>
    </g>
</svg>
