<svg xmlns="http://www.w3.org/2000/svg" width="22" height="22" viewBox="0 0 22 22">
    <g fill="none" fill-rule="evenodd">
        <path d="M-10-10h42v42h-42z"/>
        <g fill="#FFF">
            <path d="M0 11C0 4.925 4.851 0 10.835 0c5.984 0 10.836 4.925 10.836 11s-4.852 11-10.836 11S0 17.075 0 11zm16.475-2.214s-.113-.826-.459-1.19c-.439-.478-.93-.48-1.156-.508-1.615-.121-4.038-.121-4.038-.121h-.005s-2.422 0-4.037.121c-.226.028-.718.03-1.157.508-.346.364-.458 1.19-.458 1.19s-.116.97-.116 1.94v.91c0 .97.116 1.94.116 1.94s.112.827.458 1.19c.44.479 1.016.464 1.273.513.923.093 3.924.121 3.924.121s2.425-.004 4.04-.125c.225-.028.717-.03 1.156-.508.346-.364.459-1.19.459-1.19s.115-.97.115-1.94v-.91c0-.97-.115-1.941-.115-1.941z"/>
            <path d="M9.628 12.739v-3.37l3.118 1.69z"/>
        </g>
    </g>
</svg>
