<?xml version="1.0" encoding="utf-8"?>
<!-- Generator: Adobe Illustrator 20.1.0, SVG Export Plug-In . SVG Version: 6.00 Build 0)  -->
<svg version="1.1" id="Livello_1" xmlns="http://www.w3.org/2000/svg" xmlns:xlink="http://www.w3.org/1999/xlink" x="0px" y="0px"
	 viewBox="0 0 9 67.3" style="enable-background:new 0 0 9 67.3;" xml:space="preserve">
<style type="text/css">
	.st0{fill:none;stroke:#060100;stroke-width:1.96;stroke-linecap:round;}
	.st1{fill:none;stroke:#030100;stroke-width:1.96;stroke-linecap:round;}
	.st2{fill:none;stroke:#FF9158;stroke-width:2;stroke-linecap:round;stroke-dasharray:0,5.017;}
</style>
<path class="st0" d="M4.1,58.5"/>
<path class="st1" d="M4.1,78.5"/>
<line class="st2" x1="4.5" y1="15.1" x2="4.5" y2="67.3"/>
</svg>
