<?xml version="1.0" encoding="utf-8"?>
<!-- Generator: Adobe Illustrator 20.1.0, SVG Export Plug-In . SVG Version: 6.00 Build 0)  -->
<svg version="1.1" id="Livello_1" xmlns="http://www.w3.org/2000/svg" xmlns:xlink="http://www.w3.org/1999/xlink" x="0px" y="0px"
	 viewBox="0 0 194 44" style="enable-background:new 0 0 194 44;" xml:space="preserve">
<style type="text/css">
	.st0{fill:none;}
	.st1{fill:#C1C5C8;}
	.st2{enable-background:new    ;}
	.st3{fill:#FF671D;}
	.st4{fill:none;stroke:#FF671D;stroke-width:15;}
</style>
<path class="st0" d="M0,0h194v44H0V0z"/>
<path class="st1" d="M16.5,22h44v-1h-44V22z M75,22h44v-1H75V22z M134,22h43v-1h-43V22z"/>
<path class="st1" d="M9.5,29.5c4.4,0,8-3.6,8-8s-3.6-8-8-8s-8,3.6-8,8S5.1,29.5,9.5,29.5z M9.5,28.5c-3.9,0-7-3.1-7-7s3.1-7,7-7
	s7,3.1,7,7S13.4,28.5,9.5,28.5z"/>
<g class="st2">
	<path class="st1" d="M9.8,25.2v-6.7H8.5v-0.7h2v7.4C10.5,25.2,9.8,25.2,9.8,25.2z"/>
</g>
<path class="st3" d="M67.5,29.5c4.4,0,8-3.6,8-8s-3.6-8-8-8s-8,3.6-8,8S63.1,29.5,67.5,29.5z M67.5,28.5c-3.9,0-7-3.1-7-7s3.1-7,7-7
	s7,3.1,7,7S71.4,28.5,67.5,28.5z"/>
<g class="st2">
	<path class="st3" d="M65.2,25.3v-0.7l2.4-2.5c0.5-0.5,0.9-1,1.1-1.3s0.3-0.6,0.3-1s-0.1-0.7-0.4-1s-0.6-0.4-1.1-0.4s-0.8,0.1-1,0.4
		s-0.4,0.6-0.5,1.1h-0.7c0.1-0.7,0.3-1.2,0.7-1.6s0.9-0.6,1.6-0.6s1.2,0.2,1.6,0.6s0.6,0.9,0.6,1.5c0,0.3-0.1,0.6-0.2,1
		c-0.1,0.3-0.3,0.6-0.4,0.7c-0.2,0.2-0.4,0.4-0.7,0.8l-2.2,2.3h3.5v0.7H65.2z"/>
</g>
<path class="st1" d="M126.5,29.5c4.4,0,8-3.6,8-8s-3.6-8-8-8c-4.4,0-8,3.6-8,8S122.1,29.5,126.5,29.5z M126.5,28.5c-3.9,0-7-3.1-7-7
	s3.1-7,7-7c3.9,0,7,3.1,7,7S130.4,28.5,126.5,28.5z"/>
<g class="st2">
	<path class="st1" d="M126.3,20.9h0.3c0.4,0,0.7-0.1,0.9-0.3c0.2-0.2,0.4-0.5,0.4-0.9s-0.1-0.7-0.4-0.9c-0.2-0.2-0.6-0.4-0.9-0.4
		c-0.4,0-0.7,0.1-0.9,0.4c-0.2,0.3-0.4,0.6-0.4,1v0.1h-0.7v-0.1c0-0.6,0.2-1,0.6-1.4s0.9-0.6,1.4-0.6s1,0.2,1.4,0.6s0.6,0.8,0.6,1.4
		c0,0.3-0.1,0.6-0.2,0.9c-0.2,0.3-0.4,0.5-0.6,0.7c0.3,0.2,0.6,0.4,0.8,0.7c0.2,0.3,0.3,0.7,0.3,1.1c0,0.7-0.2,1.2-0.6,1.7
		c-0.4,0.4-1,0.6-1.6,0.6s-1.2-0.2-1.6-0.6s-0.7-1-0.7-1.6h0.7c0,0.5,0.1,0.9,0.4,1.2c0.3,0.3,0.6,0.4,1.1,0.4s0.8-0.1,1.1-0.4
		s0.4-0.7,0.4-1.2c0-0.9-0.6-1.4-1.7-1.4v-1H126.3z"/>
</g>
<path class="st1" d="M184.5,29.5c4.4,0,8-3.6,8-8s-3.6-8-8-8s-8,3.6-8,8S180.1,29.5,184.5,29.5z M184.5,28.5c-3.9,0-7-3.1-7-7
	s3.1-7,7-7l0,0c3.9,0,7,3.1,7,7S188.4,28.5,184.5,28.5z"/>
<g class="st2">
	<path class="st1" d="M185.5,25.2v-1.4H182v-0.7l3.4-5.4h0.9v5.4h0.7v0.7h-0.7v1.4H185.5z M185.5,18.8L185.5,18.8l-2.7,4.4h2.7V18.8
		z"/>
</g>
<path class="st4" d="M-681.5-789.5h4962v2964h-4962V-789.5z"/>
</svg>
