<svg xmlns="http://www.w3.org/2000/svg" width="24" height="24" viewBox="0 0 24 24">
    <g fill="none" fill-rule="evenodd">
        <g fill="#FF671D" fill-rule="nonzero">
            <path d="M8.832 4.494v9.747c0 .322-.32.584-.714.584-.393 0-.713-.262-.713-.584V4.235L3.997 7.644a.584.584 0 1 1-.826-.826L7.989 2l4.818 4.818a.584.584 0 0 1-.826.826l-3.15-3.15zM15.637 19.002V8.996c0-.322.32-.584.713-.584.394 0 .713.262.713.584v9.747l3.15-3.15a.584.584 0 0 1 .826.826l-4.818 4.818-4.818-4.818a.584.584 0 0 1 .826-.826l3.408 3.409z"/>
        </g>
        <path stroke="#FF671D" stroke-width="15" d="M-413.5-1989.5h4962v2964h-4962z"/>
    </g>
</svg>
