<svg xmlns="http://www.w3.org/2000/svg" width="320" height="166" viewBox="0 0 320 166">
    <g fill="none" fill-rule="nonzero">
        <path fill="#19D3C5" d="M320 1H0v51h320z"/>
        <path fill="#F7394E" d="M0 0v41l87-1.644S.848 40.129 0 0z"/>
        <path fill="#FF671D" d="M320 43H0v123h320z"/>
        <path fill="#292559" d="M190.47 37C271.431 30.654 320 1 320 1v46c-25.333 14.667-69.557 20.183-132.67 16.548C127.49 61.095 90.89 73.598 63 87c-18.594 8.935-39.594 24.926-63 47.973V37h190.47z"/>
        <path fill="#E6D67F" d="M124.442 143.736H320V166H0V67c0 40.6 36.106 76.736 124.442 76.736z"/>
    </g>
</svg>
