<svg xmlns="http://www.w3.org/2000/svg" width="9" height="9" viewBox="0 0 9 9">
    <g fill="none" fill-rule="evenodd">
        <path stroke="#FF9158" stroke-linecap="round" d="M8 4.5a3.5 3.5 0 1 1-7 0 3.5 3.5 0 0 1 7 0z"/>
        <path stroke="#FF671D" stroke-width="15" d="M-515.5-1929.5h4962v2964h-4962z"/>
    </g>
</svg>
